{ "cmd": "adv_info", "result": "ok", "output": [
"att version",
"",
"###############################",
"# VLAN ID 3 includes:",
"###############################",
"	Interface eth0.3 is up",
"	Addr 10.250.1.1 Mask 255.255.255.0",
"	IPv6 Addr fe80::227:4ff:fe2b:d7ce/64 scope Link",
"	VLAN options: none",
"	Port # 1",
"	     Link speed auto negotiated true",
"	     Link speed 1000Mbit - full duplex",
"	     RX packets: 695106",
"	     RX bytes:   44486784",
"	     TX packets: 1425693",
"	     TX bytes:   215604398",
"	Port # 2",
"	     Link speed auto negotiated true",
"	     Link speed 1000Mbit - full duplex",
"	     RX packets: 8198910",
"	     RX bytes:   3961845545",
"	     TX packets: 12526078",
"	     TX bytes:   4294967295",
"	Port # 3",
"	     no link",
"	     RX packets: 0",
"	     RX bytes:   0",
"	     TX packets: 0",
"	     TX bytes:   0",
"	Port # 4",
"	     Link speed auto negotiated true",
"	     Link speed 100Mbit - full duplex",
"	     RX packets: 228967130",
"	     RX bytes:   4294967295",
"	     TX packets: 238288269",
"	     TX bytes:   4294967295",
"	Port # 5",
"	     Link speed auto negotiated true",
"	     Link speed 1000Mbit - full duplex",
"	     RX packets: 100",
"	     RX bytes:   200",
"	     TX packets: 300",
"	     TX bytes:   400",
"###############################",
"# VLAN ID 20 includes:",
"###############################",
" Interface eth0.20 is down",
" Addr 10.10.20.1 Mask 1.2.3.4",
" VLAN options: none",
"	Port # 5",
"	     Link speed auto negotiated true",
"	     Link speed 1000Mbit - full duplex",
"	     RX packets: 10",
"	     RX bytes:   20",
"	     TX packets: 30",
"	     TX bytes:   40",
" Port # 6",
"	     no link",
"	     RX packets: 0",
"	     RX bytes:   0",
"	     TX packets: 0",
"	     TX bytes:   0",
" Port # 7",
"	     Link speed auto negotiated true",
"	     Link speed 1000Mbit - full duplex",
"	     RX packets: 8198910",
"	     RX bytes:   3961845545",
"	     TX packets: 12526078",
"	     TX bytes:   4294967295",
"",
"###############################",
"# Disabled ports include:",
"###############################",
"	Port # 8",
"	     no link",
"	     RX packets: 0",
"	     RX bytes:   0",
"	     TX packets: 0",
"	     TX bytes:   0"]}
