[
  {
    "name": "deviceId",
    "size": 32,
    "unpack_format": "A*"
  },
  {
    "name": "account",
    "size": 8,
    "unpack_format": "A*"
  },
  {
    "name": "ipAddress",
    "size": 15,
    "unpack_format": "A*"
  },
  {
    "name": "subnetMask",
    "size": 15,
    "unpack_format": "A*"
  },
  {
    "name": "description",
    "size": 30,
    "unpack_format": "A*"
  },
  {
    "name": "virData",
    "size": 20,
    "unpack_format": "A*"
  },
  {
    "name": "creator",
    "size": 32,
    "unpack_format": "A*"
  },
  {
    "name": "createdTime",
    "size": 26,
    "unpack_format": "A*"
  },
  {
    "name": "updater",
    "size": 32,
    "unpack_format": "A*"
  },
  {
    "name": "updatedTime",
    "size": 26,
    "unpack_format": "A*"
  },
  {
    "name": "ipv6Address",
    "size": 45,
    "unpack_format": "A*"
  },
  {
    "name": "ipAddressPrefix",
    "size": 3,
    "unpack_format": "A*"
  }
]
