{
  "queryType": "groupBy",
  "dataSource": "accns.production.aview.events.metrics.intelliflow",
  "granularity": "all",
  "dimensions": [
    "client"
  ],
  "filter": {
    "type": "and",
    "fields": [
      {
        "type": "selector",
        "dimension": "mac",
        "value": "0027042C3D67"
      },
      {
        "type": "selector",
        "dimension": "type",
        "value": "client"
      }
    ]
  },
  "intervals": [
    "2018-06-25T18:44:26Z/2018-06-26T18:44:26Z"
  ],
  "aggregations": [
    {
      "type": "doubleSum",
      "name": "sum",
      "fieldName": "usage"
    }
  ],
  "limitSpec": {
    "type": "default",
    "limit": 10,
    "columns": [
      {
        "dimension": "sum",
        "direction": "descending"
      }
    ]
  }
}
