[
  {
    "version": "v1",
    "timestamp": "2018-06-21T00:00:00.000Z",
    "event": {
      "count": 287,
      "interface": "ETH1",
      "total_upload": 66570,
      "total_upload_hwm": 26603008,
      "total_download": 72484,
      "total_download_hwm": 26379752,
      "upload": 231.9512195121951,
      "upload_hwm": 92693.40766550522,
      "download": 252.5574912891986,
      "download_hwm": 91915.51219512195
    }
  },
  {
    "version": "v1",
    "timestamp": "2018-06-22T00:00:00.000Z",
    "event": {
      "count": 287,
      "interface": "ETH1",
      "total_upload": 71426,
      "total_upload_hwm": 26450640,
      "total_download": 75452,
      "total_download_hwm": 26349608,
      "upload": 248.87108013937282,
      "upload_hwm": 92162.5087108014,
      "download": 262.89895470383277,
      "download_hwm": 91810.48083623694
    }
  },
  {
    "version": "v1",
    "timestamp": "2018-06-23T00:00:00.000Z",
    "event": {
      "count": 287,
      "interface": "ETH1",
      "total_upload": 65459,
      "total_upload_hwm": 26781992,
      "total_download": 70806,
      "total_download_hwm": 26360144,
      "upload": 228.0801393728223,
      "upload_hwm": 93317.04529616724,
      "download": 246.71080139372822,
      "download_hwm": 91847.19163763066
    }
  },
  {
    "version": "v1",
    "timestamp": "2018-06-24T00:00:00.000Z",
    "event": {
      "count": 288,
      "interface": "ETH1",
      "total_upload": 66721,
      "total_upload_hwm": 26679024,
      "total_download": 75380,
      "total_download_hwm": 26471712,
      "upload": 231.67013888888889,
      "upload_hwm": 92635.5,
      "download": 261.7361111111111,
      "download_hwm": 91915.66666666667
    }
  },
  {
    "version": "v1",
    "timestamp": "2018-06-25T00:00:00.000Z",
    "event": {
      "count": 287,
      "interface": "ETH1",
      "total_upload": 75268,
      "total_upload_hwm": 26426040,
      "total_download": 75447,
      "total_download_hwm": 26393280,
      "upload": 262.25783972125436,
      "upload_hwm": 92076.79442508711,
      "download": 262.8815331010453,
      "download_hwm": 91962.64808362369
    }
  },
  {
    "version": "v1",
    "timestamp": "2018-06-26T00:00:00.000Z",
    "event": {
      "count": 287,
      "interface": "ETH1",
      "total_upload": 92818,
      "total_upload_hwm": 26432328,
      "total_download": 74948,
      "total_download_hwm": 26331752,
      "upload": 323.4076655052265,
      "upload_hwm": 92098.70383275261,
      "download": 261.14285714285717,
      "download_hwm": 91748.26480836236
    }
  },
  {
    "version": "v1",
    "timestamp": "2018-06-27T00:00:00.000Z",
    "event": {
      "count": 287,
      "interface": "ETH1",
      "total_upload": 68149,
      "total_upload_hwm": 26305704,
      "total_download": 76286,
      "total_download_hwm": 26378440,
      "upload": 237.45296167247386,
      "upload_hwm": 91657.50522648083,
      "download": 265.8048780487805,
      "download_hwm": 91910.94076655053
    }
  },
  {
    "version": "v1",
    "timestamp": "2018-06-28T00:00:00.000Z",
    "event": {
      "count": 288,
      "interface": "ETH1",
      "total_upload": 63612,
      "total_upload_hwm": 26362560,
      "total_download": 72736,
      "total_download_hwm": 26383968,
      "upload": 220.875,
      "upload_hwm": 91536.66666666667,
      "download": 252.55555555555554,
      "download_hwm": 91611
    }
  },
  {
    "version": "v1",
    "timestamp": "2018-06-29T00:00:00.000Z",
    "event": {
      "count": 267,
      "interface": "ETH1",
      "total_upload": 194068,
      "total_upload_hwm": 24494112,
      "total_download": 74247,
      "total_download_hwm": 24475800,
      "upload": 726.8464419475655,
      "upload_hwm": 91738.24719101124,
      "download": 278.07865168539325,
      "download_hwm": 91669.66292134831
    }
  },
  {
    "version": "v1",
    "timestamp": "2018-06-30T00:00:00.000Z",
    "event": {
      "count": 287,
      "interface": "ETH1",
      "total_upload": 68330,
      "total_upload_hwm": 26358288,
      "total_download": 71371,
      "total_download_hwm": 26197704,
      "upload": 238.0836236933798,
      "upload_hwm": 91840.72473867596,
      "download": 248.6794425087108,
      "download_hwm": 91281.19860627178
    }
  },
  {
    "version": "v1",
    "timestamp": "2018-07-01T00:00:00.000Z",
    "event": {
      "count": 288,
      "interface": "ETH1",
      "total_upload": 69381,
      "total_upload_hwm": 26828704,
      "total_download": 72133,
      "total_download_hwm": 26439872,
      "upload": 240.90625,
      "upload_hwm": 93155.22222222222,
      "download": 250.46180555555554,
      "download_hwm": 91805.11111111111
    }
  }
]
