{
  "values" : [ 10, 25 ],
  "dstypes" : [ "counter", "counter" ],
  "dsnames" : [ "rx-bytes", "tx-bytes" ],
  "server" : "Facebook",
  "name" : "laptop",
  "address" : "172.16.0.20",
  "type" : "server",
  "time" : 1503669984,
  "host" : "00:27:04:2c:8f:5b"
}
